2021-05-04T05:36:39+00:00 CRITICAL Uncaught Error: Call to undefined function the_crystaloo_breadcrumb() in C:\xampp\htdocs\corlatenew\wp-content\themes\corlatenew\templates\helmets.php:20
Stack trace:
#0 C:\xampp\htdocs\corlatenew\wp-includes\template-loader.php(106): include()
#1 C:\xampp\htdocs\corlatenew\wp-blog-header.php(19): require_once('C:\\xampp\\htdocs...')
#2 C:\xampp\htdocs\corlatenew\index.php(17): require('C:\\xampp\\htdocs...')
#3 {main}
  thrown in C:\xampp\htdocs\corlatenew\wp-content\themes\corlatenew\templates\helmets.php on line 20

2021-05-04T05:36:41+00:00 CRITICAL Uncaught Error: Call to undefined function the_crystaloo_breadcrumb() in C:\xampp\htdocs\corlatenew\wp-content\themes\corlatenew\templates\helmets.php:20
Stack trace:
#0 C:\xampp\htdocs\corlatenew\wp-includes\template-loader.php(106): include()
#1 C:\xampp\htdocs\corlatenew\wp-blog-header.php(19): require_once('C:\\xampp\\htdocs...')
#2 C:\xampp\htdocs\corlatenew\index.php(17): require('C:\\xampp\\htdocs...')
#3 {main}
  thrown in C:\xampp\htdocs\corlatenew\wp-content\themes\corlatenew\templates\helmets.php on line 20

2021-05-04T06:59:16+00:00 CRITICAL Uncaught Error: Call to a member function get_categories() on null in C:\xampp\htdocs\corlatenew\wp-content\themes\corlatenew\templates\helmets.php:7
Stack trace:
#0 C:\xampp\htdocs\corlatenew\wp-includes\template-loader.php(106): include()
#1 C:\xampp\htdocs\corlatenew\wp-blog-header.php(19): require_once('C:\\xampp\\htdocs...')
#2 C:\xampp\htdocs\corlatenew\index.php(17): require('C:\\xampp\\htdocs...')
#3 {main}
  thrown in C:\xampp\htdocs\corlatenew\wp-content\themes\corlatenew\templates\helmets.php on line 7

2021-05-04T07:00:15+00:00 CRITICAL syntax error, unexpected end of file in C:\xampp\htdocs\corlatenew\wp-content\themes\corlatenew\templates\helmets.php on line 112

